digraph {
    rankdir=LR; // Direccion del dot (se muestra de izquierda a derecha)
    p [shape=box]; // Forma de la estructura a dibujar
    pila [shape=record; label="<f0> datos \n 2 5 7 | <f1> cima \n 3"];
    p -> pila;
}
