 ascension =  1 
 declinacion =  2 
 distancia =  3 
 masa =  4 
 diametro =  5 
 edad =  5 
 brillo =  6 

 ascension =  1 
 declinacion =  2 
 distancia =  3 
 masa =  4 
 diametro =  5 
 edad =  6 
 brillo =  6 

